CipherString = @SECLEVEL=2:kGOST:kEECDH:kRSA:kEDH:kPSK:kDHEPSK:kECDHEPSK:kRSAPSK:-aDSS:-3DES:!DES:!RC4:!RC2:!IDEA:-SEED:!eNULL:!aNULL:!MD5:-SHA384:-CAMELLIA:-ARIA:-AESCCM8
Ciphersuites = GOST2012-GOST8912-GOST8912:TLS_AES_256_GCM_SHA384:TLS_CHACHA20_POLY1305_SHA256:TLS_AES_128_GCM_SHA256:TLS_AES_128_CCM_SHA256
MinProtocol = TLSv1.2
MaxProtocol = TLSv1.3
SignatureAlgorithms = ECDSA+SHA256:ECDSA+SHA384:ECDSA+SHA512:ed25519:ed448:rsa_pss_pss_sha256:rsa_pss_pss_sha384:rsa_pss_pss_sha512:rsa_pss_rsae_sha256:rsa_pss_rsae_sha384:rsa_pss_rsae_sha512:RSA+SHA256:RSA+SHA384:RSA+SHA512:ECDSA+SHA224:RSA+SHA224